<?xml version="1.0" encoding="utf-8"?>
<!-- Generator: Adobe Illustrator 19.1.0, SVG Export Plug-In . SVG Version: 6.00 Build 0)  -->
<svg version="1.1" id="Layer_1" xmlns="http://www.w3.org/2000/svg" xmlns:xlink="http://www.w3.org/1999/xlink" x="0px" y="0px"
	 viewBox="0 0 307.8 74.7" style="enable-background:new 0 0 307.8 74.7;" xml:space="preserve">
<style type="text/css">
	.st0{opacity:0.5;fill:#FFFFFF;}
	.st1{fill:#FFFFFF;}
</style>
<path class="st0" d="M28.1,19.7c-5.8,0-10.8,1.7-14.5,5.1V2.2c0-0.7-0.3-1.3-0.8-1.7C12.3,0.1,11.6-0.1,11,0L2.2,1.9
	c-1,0.2-1.7,1.1-1.7,2.2v54.8c0,3.9-0.3,8.1-0.4,11.2L0,70.9c0,0.7,0.2,1.3,0.7,1.7c0.4,0.4,1,0.6,1.5,0.6c0.1,0,0.2,0,0.2,0l7.6,0
	c1-0.1,1.9-1,1.9-2l0.1-2.1c3.7,3.7,8.7,5.5,14.7,5.5c6.3,0,12.2-2.5,16.6-7.2c4.9-5.1,7.5-12.4,7.5-21
	C50.9,30.8,41.5,19.7,28.1,19.7z M25.2,31.1c8.5,0,12.3,7.9,12.3,15.8c0,10.1-4.8,16.4-12.5,16.4c-5.3,0-9.7-3.4-11.1-8.7l0-0.1
	c-0.2-0.7-0.3-1.5-0.3-2.6v-8.6c0-1.1,0.1-2.1,0.4-3.1C15.5,34.8,20.1,31.1,25.2,31.1z"/>
<path class="st0" d="M80.3,62.7c-1.3,0-2.3-0.3-3-1c-1-1-1-2.3-1-2.3V2.2c0-0.7-0.3-1.3-0.8-1.7c-0.5-0.4-1.3-0.6-1.9-0.4l-8.8,2
	c-1,0.2-1.7,1.1-1.7,2.2v58.2c0,4.5,2,8.2,5.5,10.2c1.6,0.9,3.4,1.5,5.6,1.8c0.9,0.1,1.8,0.2,2.7,0.2c0.1,0,0.2,0,0.3,0
	c1.1,0,3-0.1,3.1-0.1c1.2-0.2,2.1-1.1,2.1-2.2v-7.4C82.5,63.7,81.5,62.7,80.3,62.7z"/>
<g>
	<path class="st1" d="M177.3,21.4c-0.4-0.6-1-1-1.7-1h-9.1c-0.9,0-1.7,0.6-2,1.4l-9.9,31.5c-0.4,1-0.8,2.2-1.1,3.4
		c-0.4-1.2-0.8-2.4-1.1-3.4l-9.9-31.5c-0.3-0.9-1.1-1.4-2-1.4h-0.3h-8.8h-0.3c-0.9,0-1.7,0.6-2,1.4l-9.9,31.5
		c-0.4,1-0.8,2.2-1.1,3.4c-0.4-1.2-0.8-2.4-1.1-3.4L107,21.9c-0.3-0.9-1.1-1.4-2-1.4H96c-0.7,0-1.3,0.4-1.7,1
		c-0.4,0.6-0.5,1.4-0.2,2.1l16.8,46.8l0.8,2.2c0.3,0.8,1.1,1.4,2,1.4h8.9c0.9,0,1.7-0.6,2-1.4l0.8-2.2l10.5-28.9l10.5,28.9l0.8,2.2
		c0.3,0.8,1.1,1.4,2,1.4h8.9c0.9,0,1.7-0.6,2-1.4l0.8-2.2l16.8-46.8C177.8,22.8,177.7,22,177.3,21.4z"/>
	<g>
		<path class="st1" d="M199.1,0.8c-4.2,0-7.4,3.2-7.4,7.4c0,4.2,3.1,7.3,7.2,7.3c4.3,0,7.5-3.1,7.5-7.3C206.4,4,203.2,0.8,199.1,0.8
			z"/>
		<path class="st1" d="M203,20.6l-8.8,1.9c-1,0.2-1.8,1.1-1.8,2.2v47.1c0,1.2,1,2.2,2.2,2.2h8.8c1.2,0,2.2-1,2.2-2.2V22.7
			c0-0.7-0.3-1.3-0.8-1.7C204.4,20.6,203.7,20.4,203,20.6z"/>
	</g>
	<path class="st1" d="M222.4,72.5c0,1.2,1,2.2,2.2,2.2h8.8c1.2,0,2.2-1,2.2-2.2V46.7c0-1.3,0.1-2.7,0.3-3.7c1-5.4,5.2-9.2,10.3-9.4
		c0.8,0,1.6-0.5,1.9-1.3l3.3-6.8l0.7-1.5c0.3-0.6,0.3-1.4-0.1-2c-0.4-0.7-1-1.1-1.7-1.1c-9.9,0-14.6,4.1-16.1,5.8l-0.1-1.8
		c-0.1-1.1-0.9-2.5-1.9-2.6l-7.7-0.9c-0.7-0.1-1.3,0.1-1.8,0.6c-0.5,0.5-0.7,1.1-0.7,1.8L222.4,72.5z"/>
	<path class="st1" d="M285.6,19.7c-14.7,0-24.9,11.6-24.9,28.2c0,16.2,10.2,26.7,26,26.7c8.1,0,13.8-1.8,17.1-3.3
		c1-0.4,1.5-1.5,1.2-2.6l-1.6-6.3c-0.2-0.6-0.6-1.2-1.2-1.4c-0.6-0.3-1.3-0.3-1.9,0c-2.6,1.1-6.2,2.3-12.5,2.3
		c-3.9,0-13-1.2-14.3-12.4h31.7c1,0,2-0.7,2.2-1.8c0.2-1.2,0.3-2.6,0.3-4.5c0-2.8-0.4-9.9-4.4-15.9
		C299.5,22.8,293.4,19.7,285.6,19.7z M284.9,30.4c2.9,0,5.2,0.9,6.8,2.5c2.1,2.1,2.8,5,3.1,7.2h-20.7
		C275.1,36.4,277.8,30.4,284.9,30.4z"/>
</g>
</svg>
